{
  "_format": "hh-sol-artifact-1",
  "contractName": "EIP712",
  "sourceName": "CustomTokens/contracts/utils/cryptography/draft-EIP712.sol",
  "abi": [],
  "bytecode": "0x",
  "deployedBytecode": "0x",
  "linkReferences": {},
  "deployedLinkReferences": {}
}
