{
  "_format": "hh-sol-artifact-1",
  "contractName": "ECDSA",
  "sourceName": "CustomTokens/contracts/utils/cryptography/ECDSA.sol",
  "abi": [],
  "bytecode": "0x60566037600b82828239805160001a607314602a57634e487b7160e01b600052600060045260246000fd5b30600052607381538281f3fe73000000000000000000000000000000000000000030146080604052600080fdfea264697066735822122084c8a5491dc3d1533f97c454c5ce327536510626ecd6db6d740e1e718b0d76e864736f6c63430008020033",
  "deployedBytecode": "0x73000000000000000000000000000000000000000030146080604052600080fdfea264697066735822122084c8a5491dc3d1533f97c454c5ce327536510626ecd6db6d740e1e718b0d76e864736f6c63430008020033",
  "linkReferences": {},
  "deployedLinkReferences": {}
}
