{
    "MinimalForwarder": "0x95D238Afd0BE647D23a2b0f7B3AF48d25AAC82b2",
    "LazyContract": "0x90Cf2950FD42c6a6C358157ECF7c9DA353A1Eb8e",
    "AuctionContract": "0x478a10595bD43754d920408db21B4dF935ee0Cbf",
    "MarketPlace": "0xdC2b2ce27983680A9bF14dF0317064F2628406d0",
    "NFT721": "0x1E76640EF04687bA3cF765b8A6f4fEAFBf6f0f81",
    "Platform": "0xE2359a9BA9f5569801ce46c567dC737E8f7e5C2D",
    "NFT1155": "0xAb5D503430894d4b3d173Aeb08DAf58D4801dadB",
    "USDT": "0x3813e82e6f7098b9583fc0f33a962d02018b6803",
    "USDC": "0xe11A86849d99F524cAC3E7A0Ec1241828e332C62",
    "DAI": "0x001B3B4d0F3714Ca98ba10F6042DaEbF0B1B7b6F"
  }
  